<quote xmlns="http://www.tei-c.org/ns/1.0" source="#aristophanes" rend="blockquote">
  <l>ΣΤΡ. πῶς οὐ δέχονται δῆτα τῇ νουμηνίᾳ</l>
  <l>ἁρχαὶ τὰ πρυτανεῖ᾽, ἀλλ᾽ ἕνῃ τε καὶ νέᾳ;</l>
  <l>ΦΕΙΔ. ὅπερ οἱ προτένθαι γὰρ δοκοῦσιν μοι παθεῖν·</l>
  <l>ἵν᾽ ὡς τάχιστα τὰ πρυτανεῖ᾽ ὑφελοίατο,</l>
  <l>διὰ τοῦτο προὐτένθευσαν ἡμέρᾳ μιᾷ.</l>
</quote>